{
  /* Visit https://firebase.google.com/docs/database/security to learn more about security rules. */
  "rules": {
    "text": {
      ".read": true,
      ".write": true
    },
    "$user":{
      ".read": true,
      ".write": "$user != auth.uid"
    }
  }
}